%YAML 1.1
%TAG !u! tag:unity3d.com,2011:
--- !u!1 &3376136304833248462
GameObject:
  m_ObjectHideFlags: 0
  m_CorrespondingSourceObject: {fileID: 0}
  m_PrefabInstance: {fileID: 0}
  m_PrefabAsset: {fileID: 0}
  serializedVersion: 6
  m_Component:
  - component: {fileID: 1935463464967551490}
  - component: {fileID: 3212378115647960432}
  - component: {fileID: 2911164691388384504}
  m_Layer: 0
  m_Name: Layer1
  m_TagString: Untagged
  m_Icon: {fileID: 0}
  m_NavMeshLayer: 0
  m_StaticEditorFlags: 0
  m_IsActive: 1
--- !u!4 &1935463464967551490
Transform:
  m_ObjectHideFlags: 0
  m_CorrespondingSourceObject: {fileID: 0}
  m_PrefabInstance: {fileID: 0}
  m_PrefabAsset: {fileID: 0}
  m_GameObject: {fileID: 3376136304833248462}
  m_LocalRotation: {x: -0, y: -0, z: -0, w: 1}
  m_LocalPosition: {x: 0, y: 0, z: 0}
  m_LocalScale: {x: 1, y: 1, z: 1}
  m_ConstrainProportionsScale: 0
  m_Children: []
  m_Father: {fileID: 9008910764459001654}
  m_RootOrder: 0
  m_LocalEulerAnglesHint: {x: 0, y: 0, z: 0}
--- !u!1839735485 &3212378115647960432
Tilemap:
  m_ObjectHideFlags: 0
  m_CorrespondingSourceObject: {fileID: 0}
  m_PrefabInstance: {fileID: 0}
  m_PrefabAsset: {fileID: 0}
  m_GameObject: {fileID: 3376136304833248462}
  m_Enabled: 1
  m_Tiles:
  - first: {x: -2, y: -2, z: 0}
    second:
      serializedVersion: 2
      m_TileIndex: 30
      m_TileSpriteIndex: 38
      m_TileMatrixIndex: 0
      m_TileColorIndex: 0
      m_TileObjectToInstantiateIndex: 65535
      dummyAlignment: 0
      m_AllTileFlags: 1073741825
  - first: {x: -1, y: -2, z: 0}
    second:
      serializedVersion: 2
      m_TileIndex: 31
      m_TileSpriteIndex: 31
      m_TileMatrixIndex: 0
      m_TileColorIndex: 0
      m_TileObjectToInstantiateIndex: 65535
      dummyAlignment: 0
      m_AllTileFlags: 1073741825
  - first: {x: 0, y: -2, z: 0}
    second:
      serializedVersion: 2
      m_TileIndex: 32
      m_TileSpriteIndex: 32
      m_TileMatrixIndex: 0
      m_TileColorIndex: 0
      m_TileObjectToInstantiateIndex: 65535
      dummyAlignment: 0
      m_AllTileFlags: 1073741825
  - first: {x: 1, y: -2, z: 0}
    second:
      serializedVersion: 2
      m_TileIndex: 33
      m_TileSpriteIndex: 33
      m_TileMatrixIndex: 0
      m_TileColorIndex: 0
      m_TileObjectToInstantiateIndex: 65535
      dummyAlignment: 0
      m_AllTileFlags: 1073741825
  - first: {x: 2, y: -2, z: 0}
    second:
      serializedVersion: 2
      m_TileIndex: 34
      m_TileSpriteIndex: 34
      m_TileMatrixIndex: 0
      m_TileColorIndex: 0
      m_TileObjectToInstantiateIndex: 65535
      dummyAlignment: 0
      m_AllTileFlags: 1073741825
  - first: {x: 3, y: -2, z: 0}
    second:
      serializedVersion: 2
      m_TileIndex: 35
      m_TileSpriteIndex: 35
      m_TileMatrixIndex: 0
      m_TileColorIndex: 0
      m_TileObjectToInstantiateIndex: 65535
      dummyAlignment: 0
      m_AllTileFlags: 1073741825
  - first: {x: -2, y: -1, z: 0}
    second:
      serializedVersion: 2
      m_TileIndex: 24
      m_TileSpriteIndex: 30
      m_TileMatrixIndex: 0
      m_TileColorIndex: 0
      m_TileObjectToInstantiateIndex: 65535
      dummyAlignment: 0
      m_AllTileFlags: 1073741825
  - first: {x: -1, y: -1, z: 0}
    second:
      serializedVersion: 2
      m_TileIndex: 25
      m_TileSpriteIndex: 25
      m_TileMatrixIndex: 0
      m_TileColorIndex: 0
      m_TileObjectToInstantiateIndex: 65535
      dummyAlignment: 0
      m_AllTileFlags: 1073741825
  - first: {x: 0, y: -1, z: 0}
    second:
      serializedVersion: 2
      m_TileIndex: 26
      m_TileSpriteIndex: 26
      m_TileMatrixIndex: 0
      m_TileColorIndex: 0
      m_TileObjectToInstantiateIndex: 65535
      dummyAlignment: 0
      m_AllTileFlags: 1073741825
  - first: {x: 1, y: -1, z: 0}
    second:
      serializedVersion: 2
      m_TileIndex: 27
      m_TileSpriteIndex: 27
      m_TileMatrixIndex: 0
      m_TileColorIndex: 0
      m_TileObjectToInstantiateIndex: 65535
      dummyAlignment: 0
      m_AllTileFlags: 1073741825
  - first: {x: 2, y: -1, z: 0}
    second:
      serializedVersion: 2
      m_TileIndex: 28
      m_TileSpriteIndex: 28
      m_TileMatrixIndex: 0
      m_TileColorIndex: 0
      m_TileObjectToInstantiateIndex: 65535
      dummyAlignment: 0
      m_AllTileFlags: 1073741825
  - first: {x: 3, y: -1, z: 0}
    second:
      serializedVersion: 2
      m_TileIndex: 29
      m_TileSpriteIndex: 29
      m_TileMatrixIndex: 0
      m_TileColorIndex: 0
      m_TileObjectToInstantiateIndex: 65535
      dummyAlignment: 0
      m_AllTileFlags: 1073741825
  - first: {x: -2, y: 0, z: 0}
    second:
      serializedVersion: 2
      m_TileIndex: 18
      m_TileSpriteIndex: 24
      m_TileMatrixIndex: 0
      m_TileColorIndex: 0
      m_TileObjectToInstantiateIndex: 65535
      dummyAlignment: 0
      m_AllTileFlags: 1073741825
  - first: {x: -1, y: 0, z: 0}
    second:
      serializedVersion: 2
      m_TileIndex: 19
      m_TileSpriteIndex: 19
      m_TileMatrixIndex: 0
      m_TileColorIndex: 0
      m_TileObjectToInstantiateIndex: 65535
      dummyAlignment: 0
      m_AllTileFlags: 1073741825
  - first: {x: 0, y: 0, z: 0}
    second:
      serializedVersion: 2
      m_TileIndex: 20
      m_TileSpriteIndex: 20
      m_TileMatrixIndex: 0
      m_TileColorIndex: 0
      m_TileObjectToInstantiateIndex: 65535
      dummyAlignment: 0
      m_AllTileFlags: 1073741825
  - first: {x: 1, y: 0, z: 0}
    second:
      serializedVersion: 2
      m_TileIndex: 21
      m_TileSpriteIndex: 21
      m_TileMatrixIndex: 0
      m_TileColorIndex: 0
      m_TileObjectToInstantiateIndex: 65535
      dummyAlignment: 0
      m_AllTileFlags: 1073741825
  - first: {x: 2, y: 0, z: 0}
    second:
      serializedVersion: 2
      m_TileIndex: 22
      m_TileSpriteIndex: 22
      m_TileMatrixIndex: 0
      m_TileColorIndex: 0
      m_TileObjectToInstantiateIndex: 65535
      dummyAlignment: 0
      m_AllTileFlags: 1073741825
  - first: {x: 3, y: 0, z: 0}
    second:
      serializedVersion: 2
      m_TileIndex: 23
      m_TileSpriteIndex: 23
      m_TileMatrixIndex: 0
      m_TileColorIndex: 0
      m_TileObjectToInstantiateIndex: 65535
      dummyAlignment: 0
      m_AllTileFlags: 1073741825
  - first: {x: -2, y: 1, z: 0}
    second:
      serializedVersion: 2
      m_TileIndex: 12
      m_TileSpriteIndex: 18
      m_TileMatrixIndex: 0
      m_TileColorIndex: 0
      m_TileObjectToInstantiateIndex: 65535
      dummyAlignment: 0
      m_AllTileFlags: 1073741825
  - first: {x: -1, y: 1, z: 0}
    second:
      serializedVersion: 2
      m_TileIndex: 13
      m_TileSpriteIndex: 13
      m_TileMatrixIndex: 0
      m_TileColorIndex: 0
      m_TileObjectToInstantiateIndex: 65535
      dummyAlignment: 0
      m_AllTileFlags: 1073741825
  - first: {x: 0, y: 1, z: 0}
    second:
      serializedVersion: 2
      m_TileIndex: 14
      m_TileSpriteIndex: 14
      m_TileMatrixIndex: 0
      m_TileColorIndex: 0
      m_TileObjectToInstantiateIndex: 65535
      dummyAlignment: 0
      m_AllTileFlags: 1073741825
  - first: {x: 1, y: 1, z: 0}
    second:
      serializedVersion: 2
      m_TileIndex: 15
      m_TileSpriteIndex: 15
      m_TileMatrixIndex: 0
      m_TileColorIndex: 0
      m_TileObjectToInstantiateIndex: 65535
      dummyAlignment: 0
      m_AllTileFlags: 1073741825
  - first: {x: 2, y: 1, z: 0}
    second:
      serializedVersion: 2
      m_TileIndex: 16
      m_TileSpriteIndex: 16
      m_TileMatrixIndex: 0
      m_TileColorIndex: 0
      m_TileObjectToInstantiateIndex: 65535
      dummyAlignment: 0
      m_AllTileFlags: 1073741825
  - first: {x: 3, y: 1, z: 0}
    second:
      serializedVersion: 2
      m_TileIndex: 17
      m_TileSpriteIndex: 17
      m_TileMatrixIndex: 0
      m_TileColorIndex: 0
      m_TileObjectToInstantiateIndex: 65535
      dummyAlignment: 0
      m_AllTileFlags: 1073741825
  - first: {x: -2, y: 2, z: 0}
    second:
      serializedVersion: 2
      m_TileIndex: 6
      m_TileSpriteIndex: 12
      m_TileMatrixIndex: 0
      m_TileColorIndex: 0
      m_TileObjectToInstantiateIndex: 65535
      dummyAlignment: 0
      m_AllTileFlags: 1073741825
  - first: {x: -1, y: 2, z: 0}
    second:
      serializedVersion: 2
      m_TileIndex: 7
      m_TileSpriteIndex: 7
      m_TileMatrixIndex: 0
      m_TileColorIndex: 0
      m_TileObjectToInstantiateIndex: 65535
      dummyAlignment: 0
      m_AllTileFlags: 1073741825
  - first: {x: 0, y: 2, z: 0}
    second:
      serializedVersion: 2
      m_TileIndex: 8
      m_TileSpriteIndex: 8
      m_TileMatrixIndex: 0
      m_TileColorIndex: 0
      m_TileObjectToInstantiateIndex: 65535
      dummyAlignment: 0
      m_AllTileFlags: 1073741825
  - first: {x: 1, y: 2, z: 0}
    second:
      serializedVersion: 2
      m_TileIndex: 9
      m_TileSpriteIndex: 9
      m_TileMatrixIndex: 0
      m_TileColorIndex: 0
      m_TileObjectToInstantiateIndex: 65535
      dummyAlignment: 0
      m_AllTileFlags: 1073741825
  - first: {x: 2, y: 2, z: 0}
    second:
      serializedVersion: 2
      m_TileIndex: 10
      m_TileSpriteIndex: 10
      m_TileMatrixIndex: 0
      m_TileColorIndex: 0
      m_TileObjectToInstantiateIndex: 65535
      dummyAlignment: 0
      m_AllTileFlags: 1073741825
  - first: {x: 3, y: 2, z: 0}
    second:
      serializedVersion: 2
      m_TileIndex: 11
      m_TileSpriteIndex: 11
      m_TileMatrixIndex: 0
      m_TileColorIndex: 0
      m_TileObjectToInstantiateIndex: 65535
      dummyAlignment: 0
      m_AllTileFlags: 1073741825
  - first: {x: -2, y: 3, z: 0}
    second:
      serializedVersion: 2
      m_TileIndex: 0
      m_TileSpriteIndex: 36
      m_TileMatrixIndex: 0
      m_TileColorIndex: 0
      m_TileObjectToInstantiateIndex: 65535
      dummyAlignment: 0
      m_AllTileFlags: 1073741825
  - first: {x: -1, y: 3, z: 0}
    second:
      serializedVersion: 2
      m_TileIndex: 1
      m_TileSpriteIndex: 6
      m_TileMatrixIndex: 0
      m_TileColorIndex: 0
      m_TileObjectToInstantiateIndex: 65535
      dummyAlignment: 0
      m_AllTileFlags: 1073741825
  - first: {x: 0, y: 3, z: 0}
    second:
      serializedVersion: 2
      m_TileIndex: 2
      m_TileSpriteIndex: 2
      m_TileMatrixIndex: 0
      m_TileColorIndex: 0
      m_TileObjectToInstantiateIndex: 65535
      dummyAlignment: 0
      m_AllTileFlags: 1073741825
  - first: {x: 1, y: 3, z: 0}
    second:
      serializedVersion: 2
      m_TileIndex: 3
      m_TileSpriteIndex: 3
      m_TileMatrixIndex: 0
      m_TileColorIndex: 0
      m_TileObjectToInstantiateIndex: 65535
      dummyAlignment: 0
      m_AllTileFlags: 1073741825
  - first: {x: 2, y: 3, z: 0}
    second:
      serializedVersion: 2
      m_TileIndex: 4
      m_TileSpriteIndex: 4
      m_TileMatrixIndex: 0
      m_TileColorIndex: 0
      m_TileObjectToInstantiateIndex: 65535
      dummyAlignment: 0
      m_AllTileFlags: 1073741825
  - first: {x: 3, y: 3, z: 0}
    second:
      serializedVersion: 2
      m_TileIndex: 5
      m_TileSpriteIndex: 5
      m_TileMatrixIndex: 0
      m_TileColorIndex: 0
      m_TileObjectToInstantiateIndex: 65535
      dummyAlignment: 0
      m_AllTileFlags: 1073741825
  - first: {x: 1, y: 4, z: 0}
    second:
      serializedVersion: 2
      m_TileIndex: 36
      m_TileSpriteIndex: 37
      m_TileMatrixIndex: 1
      m_TileColorIndex: 0
      m_TileObjectToInstantiateIndex: 65535
      dummyAlignment: 0
      m_AllTileFlags: 1073741825
  m_AnimatedTiles: {}
  m_TileAssetArray:
  - m_RefCount: 1
    m_Data: {fileID: 11400000, guid: d124465dd8e5b1149baa2faea34e88d8, type: 2}
  - m_RefCount: 1
    m_Data: {fileID: 11400000, guid: b9d5b38552872b147b2b449232a2fa45, type: 2}
  - m_RefCount: 1
    m_Data: {fileID: 11400000, guid: c9aebad430e1202429830956f1e54f06, type: 2}
  - m_RefCount: 1
    m_Data: {fileID: 11400000, guid: 2510cb1b1f97eb048af0dc33785e460e, type: 2}
  - m_RefCount: 1
    m_Data: {fileID: 11400000, guid: 79cc1b86edc33a643b7515e025cd4776, type: 2}
  - m_RefCount: 1
    m_Data: {fileID: 11400000, guid: 4feaaa086be10ed4b8dc6256770d85a0, type: 2}
  - m_RefCount: 1
    m_Data: {fileID: 11400000, guid: 0456c90f966d7d04b9d4ba9cd287c9ea, type: 2}
  - m_RefCount: 1
    m_Data: {fileID: 11400000, guid: 5e01e5914d8f96b4e8e5a4fb387ea716, type: 2}
  - m_RefCount: 1
    m_Data: {fileID: 11400000, guid: 1ef7068286e026b4298e44f62e128318, type: 2}
  - m_RefCount: 1
    m_Data: {fileID: 11400000, guid: 79fc04e777603e1468f4d5dde6fd5ec4, type: 2}
  - m_RefCount: 1
    m_Data: {fileID: 11400000, guid: fcfb05fe7376d7e4abc2e1ac451e176b, type: 2}
  - m_RefCount: 1
    m_Data: {fileID: 11400000, guid: d8e2e04c87536d244b994466890a1a07, type: 2}
  - m_RefCount: 1
    m_Data: {fileID: 11400000, guid: 0b9a8292cc3d60440b62b1c6a660098f, type: 2}
  - m_RefCount: 1
    m_Data: {fileID: 11400000, guid: 2342723d667dc7f41bf72ae0618bf1e7, type: 2}
  - m_RefCount: 1
    m_Data: {fileID: 11400000, guid: 5e87f1f04e1fcdc438c9179420e5ff63, type: 2}
  - m_RefCount: 1
    m_Data: {fileID: 11400000, guid: 42b3da8882b0a7040abadeebd6d2fe24, type: 2}
  - m_RefCount: 1
    m_Data: {fileID: 11400000, guid: d06b3f30386ab3348897131652a85f40, type: 2}
  - m_RefCount: 1
    m_Data: {fileID: 11400000, guid: 77b250a6a559121429066ee8851f24b7, type: 2}
  - m_RefCount: 1
    m_Data: {fileID: 11400000, guid: 21bb9475551e70543bffe3fd2dc8d067, type: 2}
  - m_RefCount: 1
    m_Data: {fileID: 11400000, guid: f48f6bc2a09eafb458ba48fe31df071b, type: 2}
  - m_RefCount: 1
    m_Data: {fileID: 11400000, guid: d74075829f758a94bbf54188c26deaf0, type: 2}
  - m_RefCount: 1
    m_Data: {fileID: 11400000, guid: a8fda6f87aedb2a428e4990096562189, type: 2}
  - m_RefCount: 1
    m_Data: {fileID: 11400000, guid: e7c2a511347714d44a9b0ff3047552b7, type: 2}
  - m_RefCount: 1
    m_Data: {fileID: 11400000, guid: 55f18b8e7dccd124aa4460cf26b37948, type: 2}
  - m_RefCount: 1
    m_Data: {fileID: 11400000, guid: 5f9906d359b6db04ebc360947495a5a1, type: 2}
  - m_RefCount: 1
    m_Data: {fileID: 11400000, guid: e41ca3d161594a24b9c7213f7e39097a, type: 2}
  - m_RefCount: 1
    m_Data: {fileID: 11400000, guid: cb63216a04ea5b14da0950c263ceada4, type: 2}
  - m_RefCount: 1
    m_Data: {fileID: 11400000, guid: 09d401890e5bcae468f9f782e96ef6a7, type: 2}
  - m_RefCount: 1
    m_Data: {fileID: 11400000, guid: da6a6a0e1b56a0848b1edb9e0d98d0f4, type: 2}
  - m_RefCount: 1
    m_Data: {fileID: 11400000, guid: 96aef544934fb59499964ac638c78ead, type: 2}
  - m_RefCount: 1
    m_Data: {fileID: 11400000, guid: ecdf8915987da67409ff93910607723f, type: 2}
  - m_RefCount: 1
    m_Data: {fileID: 11400000, guid: a06ca272b1c8aa6428516624dbacf929, type: 2}
  - m_RefCount: 1
    m_Data: {fileID: 11400000, guid: f122776ecf835ca49bae3d63c0543030, type: 2}
  - m_RefCount: 1
    m_Data: {fileID: 11400000, guid: e2bbce18bac53ef47b839e521f2948ff, type: 2}
  - m_RefCount: 1
    m_Data: {fileID: 11400000, guid: 3eaee0b9e2d149e46b265836d1573b62, type: 2}
  - m_RefCount: 1
    m_Data: {fileID: 11400000, guid: 261983470580e974985ffb74baa19016, type: 2}
  - m_RefCount: 1
    m_Data: {fileID: 11400000, guid: ad30ffdf3be35fc40b146e2d7f4273a9, type: 2}
  - m_RefCount: 0
    m_Data: {fileID: 0}
  - m_RefCount: 0
    m_Data: {fileID: 0}
  m_TileSpriteArray:
  - m_RefCount: 0
    m_Data: {fileID: 0}
  - m_RefCount: 0
    m_Data: {fileID: 0}
  - m_RefCount: 1
    m_Data: {fileID: 20363093, guid: 9e26deec04fbafc41a65bfdcf97f8ff7, type: 3}
  - m_RefCount: 1
    m_Data: {fileID: 879844112, guid: 9e26deec04fbafc41a65bfdcf97f8ff7, type: 3}
  - m_RefCount: 1
    m_Data: {fileID: 78326747, guid: 9e26deec04fbafc41a65bfdcf97f8ff7, type: 3}
  - m_RefCount: 1
    m_Data: {fileID: -486892978, guid: 9e26deec04fbafc41a65bfdcf97f8ff7, type: 3}
  - m_RefCount: 1
    m_Data: {fileID: 1428196254, guid: 9e26deec04fbafc41a65bfdcf97f8ff7, type: 3}
  - m_RefCount: 1
    m_Data: {fileID: 269529038, guid: 9e26deec04fbafc41a65bfdcf97f8ff7, type: 3}
  - m_RefCount: 1
    m_Data: {fileID: 1866943580, guid: 9e26deec04fbafc41a65bfdcf97f8ff7, type: 3}
  - m_RefCount: 1
    m_Data: {fileID: -1861807437, guid: 9e26deec04fbafc41a65bfdcf97f8ff7, type: 3}
  - m_RefCount: 1
    m_Data: {fileID: -612278764, guid: 9e26deec04fbafc41a65bfdcf97f8ff7, type: 3}
  - m_RefCount: 1
    m_Data: {fileID: -2018120710, guid: 9e26deec04fbafc41a65bfdcf97f8ff7, type: 3}
  - m_RefCount: 1
    m_Data: {fileID: 1109881700, guid: 9e26deec04fbafc41a65bfdcf97f8ff7, type: 3}
  - m_RefCount: 1
    m_Data: {fileID: 1916902767, guid: 9e26deec04fbafc41a65bfdcf97f8ff7, type: 3}
  - m_RefCount: 1
    m_Data: {fileID: 211308835, guid: 9e26deec04fbafc41a65bfdcf97f8ff7, type: 3}
  - m_RefCount: 1
    m_Data: {fileID: 1363073311, guid: 9e26deec04fbafc41a65bfdcf97f8ff7, type: 3}
  - m_RefCount: 1
    m_Data: {fileID: -1483703500, guid: 9e26deec04fbafc41a65bfdcf97f8ff7, type: 3}
  - m_RefCount: 1
    m_Data: {fileID: 1252593976, guid: 9e26deec04fbafc41a65bfdcf97f8ff7, type: 3}
  - m_RefCount: 1
    m_Data: {fileID: -1691834688, guid: 9e26deec04fbafc41a65bfdcf97f8ff7, type: 3}
  - m_RefCount: 1
    m_Data: {fileID: 1347156085, guid: 9e26deec04fbafc41a65bfdcf97f8ff7, type: 3}
  - m_RefCount: 1
    m_Data: {fileID: -593640885, guid: 9e26deec04fbafc41a65bfdcf97f8ff7, type: 3}
  - m_RefCount: 1
    m_Data: {fileID: -1108929542, guid: 9e26deec04fbafc41a65bfdcf97f8ff7, type: 3}
  - m_RefCount: 1
    m_Data: {fileID: 1211260262, guid: 9e26deec04fbafc41a65bfdcf97f8ff7, type: 3}
  - m_RefCount: 1
    m_Data: {fileID: -1596022213, guid: 9e26deec04fbafc41a65bfdcf97f8ff7, type: 3}
  - m_RefCount: 1
    m_Data: {fileID: 359673543, guid: 9e26deec04fbafc41a65bfdcf97f8ff7, type: 3}
  - m_RefCount: 1
    m_Data: {fileID: -1129216573, guid: 9e26deec04fbafc41a65bfdcf97f8ff7, type: 3}
  - m_RefCount: 1
    m_Data: {fileID: 1540196756, guid: 9e26deec04fbafc41a65bfdcf97f8ff7, type: 3}
  - m_RefCount: 1
    m_Data: {fileID: -2136990444, guid: 9e26deec04fbafc41a65bfdcf97f8ff7, type: 3}
  - m_RefCount: 1
    m_Data: {fileID: -1982816827, guid: 9e26deec04fbafc41a65bfdcf97f8ff7, type: 3}
  - m_RefCount: 1
    m_Data: {fileID: -1441418098, guid: 9e26deec04fbafc41a65bfdcf97f8ff7, type: 3}
  - m_RefCount: 1
    m_Data: {fileID: 299030302, guid: 9e26deec04fbafc41a65bfdcf97f8ff7, type: 3}
  - m_RefCount: 1
    m_Data: {fileID: -2127313929, guid: 9e26deec04fbafc41a65bfdcf97f8ff7, type: 3}
  - m_RefCount: 1
    m_Data: {fileID: 497059769, guid: 9e26deec04fbafc41a65bfdcf97f8ff7, type: 3}
  - m_RefCount: 1
    m_Data: {fileID: -1649301808, guid: 9e26deec04fbafc41a65bfdcf97f8ff7, type: 3}
  - m_RefCount: 1
    m_Data: {fileID: 632187502, guid: 9e26deec04fbafc41a65bfdcf97f8ff7, type: 3}
  - m_RefCount: 1
    m_Data: {fileID: -1106505642, guid: 9e26deec04fbafc41a65bfdcf97f8ff7, type: 3}
  - m_RefCount: 1
    m_Data: {fileID: -2085586714, guid: 9e26deec04fbafc41a65bfdcf97f8ff7, type: 3}
  - m_RefCount: 1
    m_Data: {fileID: 21300000, guid: 79c1339a1a7b3cc43ba5ef394c88a778, type: 3}
  - m_RefCount: 1
    m_Data: {fileID: 906793521, guid: 9e26deec04fbafc41a65bfdcf97f8ff7, type: 3}
  m_TileMatrixArray:
  - m_RefCount: 36
    m_Data:
      e00: 1
      e01: 0
      e02: 0
      e03: 0
      e10: 0
      e11: 1
      e12: 0
      e13: 0
      e20: 0
      e21: 0
      e22: 1
      e23: 0
      e30: 0
      e31: 0
      e32: 0
      e33: 1
  - m_RefCount: 1
    m_Data:
      e00: 1
      e01: 0
      e02: 0
      e03: 0
      e10: 0
      e11: 1
      e12: 0
      e13: -0.25
      e20: 0
      e21: 0
      e22: 1
      e23: 0
      e30: 0
      e31: 0
      e32: 0
      e33: 1
  m_TileColorArray:
  - m_RefCount: 37
    m_Data: {r: 1, g: 1, b: 1, a: 1}
  - m_RefCount: 0
    m_Data: {r: NaN, g: NaN, b: NaN, a: NaN}
  m_TileObjectToInstantiateArray: []
  m_AnimationFrameRate: 1
  m_Color: {r: 1, g: 1, b: 1, a: 1}
  m_Origin: {x: -2, y: -2, z: 0}
  m_Size: {x: 6, y: 7, z: 1}
  m_TileAnchor: {x: 0.5, y: 0.5, z: 0}
  m_TileOrientation: 0
  m_TileOrientationMatrix:
    e00: 1
    e01: 0
    e02: 0
    e03: 0
    e10: 0
    e11: 1
    e12: 0
    e13: 0
    e20: 0
    e21: 0
    e22: 1
    e23: 0
    e30: 0
    e31: 0
    e32: 0
    e33: 1
--- !u!483693784 &2911164691388384504
TilemapRenderer:
  m_ObjectHideFlags: 0
  m_CorrespondingSourceObject: {fileID: 0}
  m_PrefabInstance: {fileID: 0}
  m_PrefabAsset: {fileID: 0}
  m_GameObject: {fileID: 3376136304833248462}
  m_Enabled: 1
  m_CastShadows: 0
  m_ReceiveShadows: 0
  m_DynamicOccludee: 0
  m_StaticShadowCaster: 0
  m_MotionVectors: 1
  m_LightProbeUsage: 0
  m_ReflectionProbeUsage: 0
  m_RayTracingMode: 0
  m_RayTraceProcedural: 0
  m_RenderingLayerMask: 1
  m_RendererPriority: 0
  m_Materials:
  - {fileID: 10754, guid: 0000000000000000f000000000000000, type: 0}
  m_StaticBatchInfo:
    firstSubMesh: 0
    subMeshCount: 0
  m_StaticBatchRoot: {fileID: 0}
  m_ProbeAnchor: {fileID: 0}
  m_LightProbeVolumeOverride: {fileID: 0}
  m_ScaleInLightmap: 1
  m_ReceiveGI: 1
  m_PreserveUVs: 0
  m_IgnoreNormalsForChartDetection: 0
  m_ImportantGI: 0
  m_StitchLightmapSeams: 1
  m_SelectedEditorRenderState: 0
  m_MinimumChartSize: 4
  m_AutoUVMaxDistance: 0.5
  m_AutoUVMaxAngle: 89
  m_LightmapParameters: {fileID: 0}
  m_SortingLayerID: 0
  m_SortingLayer: 0
  m_SortingOrder: 0
  m_ChunkSize: {x: 32, y: 32, z: 32}
  m_ChunkCullingBounds: {x: 0, y: 0, z: 0}
  m_MaxChunkCount: 16
  m_MaxFrameAge: 16
  m_SortOrder: 0
  m_Mode: 0
  m_DetectChunkCullingBounds: 0
  m_MaskInteraction: 0
--- !u!1 &8395596686809010173
GameObject:
  m_ObjectHideFlags: 0
  m_CorrespondingSourceObject: {fileID: 0}
  m_PrefabInstance: {fileID: 0}
  m_PrefabAsset: {fileID: 0}
  serializedVersion: 6
  m_Component:
  - component: {fileID: 9008910764459001654}
  - component: {fileID: 404948057566019637}
  m_Layer: 0
  m_Name: TundraPalatte
  m_TagString: Untagged
  m_Icon: {fileID: 0}
  m_NavMeshLayer: 0
  m_StaticEditorFlags: 0
  m_IsActive: 1
--- !u!4 &9008910764459001654
Transform:
  m_ObjectHideFlags: 0
  m_CorrespondingSourceObject: {fileID: 0}
  m_PrefabInstance: {fileID: 0}
  m_PrefabAsset: {fileID: 0}
  m_GameObject: {fileID: 8395596686809010173}
  m_LocalRotation: {x: 0, y: 0, z: 0, w: 1}
  m_LocalPosition: {x: 0, y: 0, z: 0}
  m_LocalScale: {x: 1, y: 1, z: 1}
  m_ConstrainProportionsScale: 0
  m_Children:
  - {fileID: 1935463464967551490}
  m_Father: {fileID: 0}
  m_RootOrder: 0
  m_LocalEulerAnglesHint: {x: 0, y: 0, z: 0}
--- !u!156049354 &404948057566019637
Grid:
  m_ObjectHideFlags: 0
  m_CorrespondingSourceObject: {fileID: 0}
  m_PrefabInstance: {fileID: 0}
  m_PrefabAsset: {fileID: 0}
  m_GameObject: {fileID: 8395596686809010173}
  m_Enabled: 1
  m_CellSize: {x: 20.005724, y: 24.330002, z: 0}
  m_CellGap: {x: 0, y: 0, z: 0}
  m_CellLayout: 0
  m_CellSwizzle: 0
--- !u!114 &1735124923980449566
MonoBehaviour:
  m_ObjectHideFlags: 0
  m_CorrespondingSourceObject: {fileID: 0}
  m_PrefabInstance: {fileID: 0}
  m_PrefabAsset: {fileID: 0}
  m_GameObject: {fileID: 0}
  m_Enabled: 1
  m_EditorHideFlags: 0
  m_Script: {fileID: 12395, guid: 0000000000000000e000000000000000, type: 0}
  m_Name: Palette Settings
  m_EditorClassIdentifier: 
  cellSizing: 0
  m_TransparencySortMode: 0
  m_TransparencySortAxis: {x: 0, y: 0, z: 1}
